PPOL670 | Introduction to Data Science for Public Policy Week 6 Webscraping & APIs
…
```
## [1] 308
```

```r
homicide_data <- c()
for(i in 1:total_entries){
* tmp <- as_tibble(fbi_dat$data[[i]])
  homicide_data <- bind_rows(homicide_data,tmp)
}
homicide_data
```

```
## # A tibble: 308 x 4
##    value data_year month_num key  
##    <int>     <int>     <int> <chr>
##  1   181      2008         0 0-9  
##  2   194      2011         0 0-9  
##  3   112      2003         0 0-9  
##  4   159      2006         0 0-9  
##  5   168      2009         0 0-9  
##  6   204      2016         0 0-9  
##  7    30      1994         0 0-9  
##  8   102      2002         0 0-9  
##  9    36      1997         0 0-9  
## 10   159      2005         0 0-9  
## # … with 298 more rows
```
…
```r
homicide_data_clean <-
  homicide_data %>%  
  select(year = data_year,
         age_range = key,
         count = value) %>%  
  arrange(year,age_range) # Arrange by year, age

# Print
homicide_data_clean
```

```
## # A tibble: 308 x 3
##     year age_range count
##    <int> <chr>     <int>
##  1  1991 0-9          24
##  2  1991 10-19       105
##  3  1991 20-29       253
##  4  1991 30-39       202
##  5  1991 40-49       102
##  6  1991 50-59        38
##  7  1991 60-69        38
##  8  1991 70-79        16
##  9  1991 80-89        11
## 10  1991 90-Older      1
## # … with 298 more rows
```
…
