PPOL670 | Introduction to Data Science for Public Policy Week 6 Exploratory Data Anlaysis and Modeling
…
---

```r
crimes <- 
  crimes %>% 
  mutate(month = lubridate::round_date(date,unit = 'month')) 

crimes %>% 
  group_by(month) %>% 
  count()
```

```
## # A tibble: 61 x 2
## # Groups:   month [61]
##    month                   n
##    <dttm>              <int>
##  1 2012-01-01 00:00:00   135
##  2 2012-02-01 00:00:00   223
##  3 2012-03-01 00:00:00   272
##  4 2012-04-01 00:00:00   297
##  5 2012-05-01 00:00:00   299
##  6 2012-06-01 00:00:00   289
##  7 2012-07-01 00:00:00   316
##  8 2012-08-01 00:00:00   318
##  9 2012-09-01 00:00:00   269
## 10 2012-10-01 00:00:00   275
## # … with 51 more rows
```
…
