PPOL670 | Introduction to Data Science for Public Policy Week 5 Webscraping & APIs
…
```
## [1] 23
```

```r
homicide_data <- c()
for(i in 1:total_entries){
* tmp <- as_tibble(fbi_dat$results[[i]])
  homicide_data <- bind_rows(homicide_data,tmp)
}
homicide_data
```

```
## # A tibble: 23 x 13
##    offense_name data_year unknown range_0_9 range_10_19 range_20_29
##    <chr>            <int>   <int>     <int>       <int>       <int>
##  1 Murder and …      2008      97       181         352         963
##  2 Murder and …      2011      47       191         334        1097
##  3 Murder and …      2003      65       112         211         655
##  4 Murder and …      2006     111       159         388        1007
##  5 Murder and …      2009      79       168         371         995
##  6 Murder and …      2016      52       204         415        1548
##  7 Murder and …      2002      95       102         209         617
##  8 Murder and …      1997      23        36          91         204
##  9 Murder and …      2005     122       158         358        1056
## 10 Murder and …      1998      39        66         105         263
## # … with 13 more rows, and 7 more variables: range_30_39 <int>,
## #   range_40_49 <int>, range_50_59 <int>, range_60_69 <int>,
## #   range_70_79 <int>, range_80_89 <int>, range_90_99 <int>
```
…
```r
homicide_data_clean <-
  homicide_data %>%  
  select(-offense_name) %>%   # Drop category (only homicides)
  rename(year = data_year) %>%  # Rename year var
  gather(age_range,count,-year) %>%  # Go from wide to long data
  mutate(age_range = str_remove(age_range,'range_')) %>%  # remove from age categories
  arrange(year,age_range) # Arrange by year, age

# Print
homicide_data_clean
```

```
## # A tibble: 253 x 3
##     year age_range count
##    <int> <chr>     <int>
##  1  1995 0_9          25
##  2  1995 10_19        43
##  3  1995 20_29       112
##  4  1995 30_39       126
##  5  1995 40_49        75
##  6  1995 50_59        29
##  7  1995 60_69        19
##  8  1995 70_79        17
##  9  1995 80_89         3
## 10  1995 90_99         3
## # … with 243 more rows
```
…
