PPOL670 | Introduction to Data Science | Week 8
…
pres_tf <- 
  text_dat2 %>% 
  filter(address == "first") %>% 
  group_by(president,year) %>% 
  count(word) %>% 
  
  # let's bind on the inverse document term frequency. 
  bind_tf_idf(term = word,
              document = president,
              n = n )

pres_tf

## # A tibble: 23,604 x 7
## # Groups:   president, year [39]
##    president        year word             n       tf   idf   tf_idf
##    <chr>           <dbl> <chr>        <int>    <dbl> <dbl>    <dbl>
##  1 abraham_lincoln  1861 abide            2 0.00195  3.66  0.00714 
##  2 abraham_lincoln  1861 ability          1 0.000975 1.10  0.00107 
##  3 abraham_lincoln  1861 accept           1 0.000975 1.02  0.000999
##  4 abraham_lincoln  1861 acceptance       1 0.000975 2.28  0.00222 
##  5 abraham_lincoln  1861 accession        1 0.000975 2.28  0.00222 
##  6 abraham_lincoln  1861 acquiesce        2 0.00195  2.97  0.00579 
##  7 abraham_lincoln  1861 acquiescence     1 0.000975 2.05  0.00200 
##  8 abraham_lincoln  1861 act              1 0.000975 0.719 0.000701
##  9 abraham_lincoln  1861 action           2 0.00195  0.528 0.00103 
## 10 abraham_lincoln  1861 actions          1 0.000975 1.58  0.00154 
## #  with 23,594 more rows

Now to select the top 5 words unique to each president.

five_unique <-
  pres_tf %>% 
  group_by(president,year) %>% 
  arrange(desc(tf_idf)) %>% 
  slice(1:5)  %>% 
  ungroup

five_unique

## # A tibble: 195 x 7
##    president        year word               n      tf   idf  tf_idf
##    <chr>           <dbl> <chr>          <int>   <dbl> <dbl>   <dbl>
##  1 abraham_lincoln  1861 clause             5 0.00487  2.97 0.0145 
##  2 abraham_lincoln  1861 secede             4 0.00390  3.66 0.0143 
##  3 abraham_lincoln  1861 minority           6 0.00585  2.28 0.0133 
##  4 abraham_lincoln  1861 plainly            5 0.00487  2.56 0.0125 
##  5 abraham_lincoln  1861 lawfully           4 0.00390  2.97 0.0116 
##  6 andrew_jackson   1829 defending          2 0.00524  2.56 0.0134 
##  7 andrew_jackson   1829 diffidence         2 0.00524  2.56 0.0134 
##  8 andrew_jackson   1829 worth              2 0.00524  2.28 0.0119 
##  9 andrew_jackson   1829 accountability     2 0.00524  1.87 0.00980
## 10 andrew_jackson   1829 admonishes         1 0.00262  3.66 0.00959
## #  with 185 more rows
…
(7) On Average, which presidents inaugural speech is most positive? Which is most negative?

Lets examine the sentiment of the speeches.

text_dat_sent <- 
  text_dat2 %>% 
  inner_join(get_sentiments("afinn"),by='word')

text_dat_sent

## # A tibble: 6,972 x 7
##    president         address date        year length word        value
##    <chr>             <chr>   <date>     <dbl>  <int> <chr>       <dbl>
##  1 george_washington first   1789-04-30  1789   8641 love            3
##  2 george_washington first   1789-04-30  1789   8641 retreat        -1
##  3 george_washington first   1789-04-30  1789   8641 hopes           2
##  4 george_washington first   1789-04-30  1789   8641 retreat        -1
##  5 george_washington first   1789-04-30  1789   8641 dear            2
##  6 george_washington first   1789-04-30  1789   8641 waste          -1
##  7 george_washington first   1789-04-30  1789   8641 committed       1
##  8 george_washington first   1789-04-30  1789   8641 trust           1
##  9 george_washington first   1789-04-30  1789   8641 distrustful    -3
## 10 george_washington first   1789-04-30  1789   8641 inferior       -2
## #  with 6,962 more rows
…
