PPOL670 | Introduction to Data Science for Public Policy Week 12 Interpretable Machine Learning
…
  + We want to ensure a specific importance ordering isn't a results of a single permutation.

---

### Example

What features in the data best predict whether someone will vote or not?

```r
vote_data
```

```
## # A tibble: 1,000 x 5
##    voted   age political_therm visited_europe eat_bread
##    <fct> <dbl>           <dbl>          <int>     <int>
##  1 Yes    0.24            0.84              0         0
##  2 No     0.53            0.49              0         1
##  3 No     0.53            0.11              0         1
##  4 No     0.54            0.35              0         1
##  5 Yes    0.67            0.76              0         1
##  6 No     0.54            0.39              0         1
##  7 Yes    0.19            0.46              1         1
##  8 No     0.31            0.11              0         0
##  9 Yes    0.56            0.96              1         1
## 10 Yes    0.47            0.99              0         0
## # … with 990 more rows
```
…
