PPOL670 | Supervised Learning - Classification
…
Over representativeness of some racial groups in the data.

Good variation on maritial outcomes and education

Lets peek at the data a little closer. We see that there are potential issues in this data with perfect prediction. That is, among some categorical configurations, there lie arrangements where there is no variation in the outcome. For these instances, we can predict Coverage or lack there of perfectly. This can cause issues for some models (logistic regression, SVM).

train_data %>% 
  select_if(is.character) %>% 
  group_by_all() %>% 
  count() %>% 
  spread(coverage,n,fill=0) %>% 
  arrange(Coverage)

## # A tibble: 142 x 6
## # Groups:   cit, mar, educ, race [142]
##    cit     mar          educ             race               Coverage No_Coverage
##    <chr>   <chr>        <chr>            <chr>                 <dbl>       <dbl>
##  1 Citizen Divorced     Graduate Degree  Other                     0           1
##  2 Citizen Divorced     HS Degree        Other                     0           5
##  3 Citizen Divorced     Less than HS     Asian                     0           1
##  4 Citizen Divorced     Undergraduate D Two or More               0           2
##  5 Citizen Married      HS Degree        Nat. Hawaiian/Pac        0           1
##  6 Citizen Married      Less than HS     Amer. Ind.                0           1
##  7 Citizen Married      Less than HS     Other                     0           6
##  8 Citizen Married      Less than HS     Two or More               0           1
##  9 Citizen Never Marri Graduate Degree  Other                     0           1
## 10 Citizen Never Marri Less than HS     Other                     0           8
## #  with 132 more rows
…
