PPOL670 | Introduction to Data Science for Public Policy Week 8 Text as Data
…
---

### Tokenization (words)

```r
text_data %>% 
  unnest_tokens(word,text,token = "words") # Words are Default
```

```
## # A tibble: 28 x 1
##    word       
##    <chr>      
##  1 us         
##  2 opposition 
##  3 politicians
##  4 and        
##  5 aid        
##  6 agencies   
##  7 have       
##  8 questioned 
##  9 a          
## 10 decision   
## # … with 18 more rows
```

---

### Tokenization (characters)

```r
text_data %>% 
  unnest_tokens(word,text,token = "characters")
```

```
## # A tibble: 140 x 1
##    word 
##    <chr>
##  1 u    
##  2 s    
##  3 o    
##  4 p    
##  5 p    
##  6 o    
##  7 s    
##  8 i    
##  9 t    
## 10 i    
## # … with 130 more rows
```

---

### Tokenization (ngrams)

```r
text_data %>% 
  unnest_tokens(word,text,token = "ngrams",n=2)
```

```
## # A tibble: 27 x 1
##    word                  
##    <chr>                 
##  1 us opposition         
##  2 opposition politicians
##  3 politicians and       
##  4 and aid               
##  5 aid agencies          
##  6 agencies have         
##  7 have questioned       
##  8 questioned a          
##  9 a decision            
## 10 decision by           
## # … with 17 more rows
```

---

### Tokenization (ngrams)

```r
text_data %>% 
  unnest_tokens(word,text,token = "ngrams",n=3)
```

```
## # A tibble: 26 x 1
##    word                      
##    <chr>                     
##  1 us opposition politicians 
##  2 opposition politicians and
##  3 politicians and aid       
##  4 and aid agencies          
##  5 aid agencies have         
##  6 agencies have questioned  
##  7 have questioned a         
##  8 questioned a decision     
##  9 a decision by             
## 10 decision by president     
## # … with 16 more rows
```
…
---

### From words to numbers (a.k.a. counting)

Number of times a word appears in the text.

```r
text_data %>% 
  unnest_tokens(word,text) %>% 
  count(word, sort = TRUE) 
```

```
## # A tibble: 26 x 2
##    word         n
##    <chr>    <int>
##  1 aid          2
##  2 to           2
##  3 a            1
##  4 agencies     1
##  5 american     1
##  6 and          1
##  7 by           1
##  8 central      1
##  9 cut          1
## 10 decision     1
## # … with 16 more rows
```
…
---

```r
text_data <- 
  news_data %>% 
  group_by(story_id) %>% 
* unnest_tokens(word,story) %>%
  ungroup()
text_data
```

```
## # A tibble: 2,894 x 4
##    headline                                       date        story_id word     
##    <chr>                                          <chr>          <int> <chr>    
##  1 Trump Covid: Biden warns there is 'a lot to b… 6 October …        1 democrat…
##  2 Trump Covid: Biden warns there is 'a lot to b… 6 October …        1 presiden…
##  3 Trump Covid: Biden warns there is 'a lot to b… 6 October …        1 nominee  
##  4 Trump Covid: Biden warns there is 'a lot to b… 6 October …        1 joe      
##  5 Trump Covid: Biden warns there is 'a lot to b… 6 October …        1 biden    
##  6 Trump Covid: Biden warns there is 'a lot to b… 6 October …        1 has      
##  7 Trump Covid: Biden warns there is 'a lot to b… 6 October …        1 criticis…
##  8 Trump Covid: Biden warns there is 'a lot to b… 6 October …        1 us       
##  9 Trump Covid: Biden warns there is 'a lot to b… 6 October …        1 president
## 10 Trump Covid: Biden warns there is 'a lot to b… 6 October …        1 donald   
## # … with 2,884 more rows
```

---

```r
# Term Frequency 

text_data %>% 
  group_by(story_id) %>% 
  count(word,sort=T) 
```

```
## # A tibble: 1,310 x 3
## # Groups:   story_id [3]
##    story_id word      n
##       <int> <chr> <int>
##  1        1 the      74
##  2        3 the      55
##  3        1 to       52
##  4        1 a        45
##  5        1 he       31
##  6        2 the      31
##  7        1 and      29
##  8        3 and      25
##  9        1 of       22
## 10        1 on       22
## # … with 1,300 more rows
```
…
```r
### Dropping stopwords

text_data <-
  text_data %>% 
* anti_join(stop_words)

text_data %>% 
  group_by(story_id) %>% 
  count(word,sort = T) 
```

```
## # A tibble: 874 x 3
## # Groups:   story_id [3]
##    story_id word             n
##       <int> <chr>        <int>
##  1        1 trump           21
##  2        1 president       17
##  3        3 presidential    12
##  4        3 debate          11
##  5        1 house           10
##  6        1 white           10
##  7        1 coronavirus      9
##  8        1 people           9
##  9        2 positive         8
## 10        2 president        8
## # … with 864 more rows
```

---

Let's drop words that have digits in them... using regular expressions and the `stringr` package. 

```r
# Further Cleaning 
text_data %>% 
  filter(str_detect(word,"\\d")) %>% 
  select(story_id,word)
```

```
## # A tibble: 32 x 2
##    story_id word 
##       <int> <chr>
##  1        1 19   
##  2        1 3    
##  3        1 19   
##  4        1 19   
##  5        1 10   
##  6        1 19   
##  7        1 24   
##  8        1 7    
##  9        1 74   
## 10        1 12   
## # … with 22 more rows
```
…
Let's drop words that have digits in them... using regular expressions and the `stringr` package. 

```r
# Further Cleaning 

text_data <- 
  text_data %>% 
  filter(!str_detect(word,"\\d")) 

text_data %>% select(story_id,word)
```

```
## # A tibble: 1,262 x 2
##    story_id word        
##       <int> <chr>       
##  1        1 democratic  
##  2        1 presidential
##  3        1 nominee     
##  4        1 joe         
##  5        1 biden       
##  6        1 criticised  
##  7        1 president   
##  8        1 donald      
##  9        1 trump       
## 10        1 downplaying 
## # … with 1,252 more rows
```
…
# Now count for real
text_data_cnts <- 
  text_data %>% 
  group_by(story_id,headline) %>% 
  count(word,sort=T) %>% 
  ungroup()

text_data_cnts 
```

```
## # A tibble: 776 x 4
##    story_id headline                                              word         n
##       <int> <chr>                                                 <chr>    <int>
##  1        1 Trump Covid: Biden warns there is 'a lot to be conce… trump       21
##  2        1 Trump Covid: Biden warns there is 'a lot to be conce… presid      17
##  3        3 Kamala Harris v Mike Pence: Why this vice-president … debat       16
##  4        3 Kamala Harris v Mike Pence: Why this vice-president … preside…    12
##  5        1 Trump Covid: Biden warns there is 'a lot to be conce… hous        10
##  6        1 Trump Covid: Biden warns there is 'a lot to be conce… white       10
##  7        1 Trump Covid: Biden warns there is 'a lot to be conce… coronav…     9
##  8        1 Trump Covid: Biden warns there is 'a lot to be conce… peopl        9
##  9        2 Covid: US military leaders quarantine after official… chief        8
## 10        2 Covid: US military leaders quarantine after official… posit        8
## # … with 766 more rows
```
…
It's in the words particular to an author or document that the real information lies!

---

```r
text_data_cnts2 <- 
  text_data_cnts %>% 
  bind_tf_idf(word, story_id, n)

text_data_cnts2 %>% 
  select(n,tf,idf,tf_idf)
```

```
## # A tibble: 776 x 4
##        n     tf   idf  tf_idf
##    <int>  <dbl> <dbl>   <dbl>
##  1    21 0.0339 0     0      
##  2    17 0.0275 0     0      
##  3    16 0.0455 0     0      
##  4    12 0.0341 0.405 0.0138 
##  5    10 0.0162 0.405 0.00655
##  6    10 0.0162 0.405 0.00655
##  7     9 0.0145 0.405 0.00590
##  8     9 0.0145 0     0      
##  9     8 0.0275 0.405 0.0111 
## 10     8 0.0275 0     0      
## # … with 766 more rows
```
…
---

### Sentiment Dictionaries

.pull-left[

```r
get_sentiments("afinn")
```

```
## # A tibble: 2,477 x 2
##    word       value
##    <chr>      <dbl>
##  1 abandon       -2
##  2 abandoned     -2
##  3 abandons      -2
##  4 abducted      -2
##  5 abduction     -2
##  6 abductions    -2
##  7 abhor         -3
##  8 abhorred      -3
##  9 abhorrent     -3
## 10 abhors        -3
## # … with 2,467 more rows
```
]

.pull-right[

```r
get_sentiments("bing")
```

```
## # A tibble: 6,786 x 2
##    word        sentiment
##    <chr>       <chr>    
##  1 2-faces     negative 
##  2 abnormal    negative 
##  3 abolish     negative 
##  4 abominable  negative 
##  5 abominably  negative 
##  6 abominate   negative 
##  7 abomination negative 
##  8 abort       negative 
##  9 aborted     negative 
## 10 aborts      negative 
## # … with 6,776 more rows
```
]

---

### Sentiment to text

```r
sent_dict <- get_sentiments("afinn")
sent_text <- text_data %>% inner_join(sent_dict) %>% ungroup()
sent_text
```

```
## # A tibble: 56 x 5
##    headline                                    date        story_id word   value
##    <chr>                                       <chr>          <int> <chr>  <dbl>
##  1 Trump Covid: Biden warns there is 'a lot t… 6 October …        1 fear      -2
##  2 Trump Covid: Biden warns there is 'a lot t… 6 October …        1 glad       3
##  3 Trump Covid: Biden warns there is 'a lot t… 6 October …        1 hope       2
##  4 Trump Covid: Biden warns there is 'a lot t… 6 October …        1 matter     1
##  5 Trump Covid: Biden warns there is 'a lot t… 6 October …        1 death     -2
##  6 Trump Covid: Biden warns there is 'a lot t… 6 October …        1 save       2
##  7 Trump Covid: Biden warns there is 'a lot t… 6 October …        1 threat    -2
##  8 Trump Covid: Biden warns there is 'a lot t… 6 October …        1 prote…     1
##  9 Trump Covid: Biden warns there is 'a lot t… 6 October …        1 danger    -2
## 10 Trump Covid: Biden warns there is 'a lot t… 6 October …        1 prote…     1
## # … with 46 more rows
```
…
<img src="lecture-week-08-text-as-data-ppol670_files/figure-html/unnamed-chunk-56-1.png" style="display: block; margin: auto;" />

---

### Example: Inaugural Speeches

```r
inaug_dat <- read_csv("Data/inaug_speeches.csv")
inaug_dat
```

```
## # A tibble: 58 x 5
##       X1 Name      `Inaugural Address` Date        text                         
##    <dbl> <chr>     <chr>               <chr>       <chr>                        
##  1     4 George W… First Inaugural Ad… Thursday, … "Fellow-Citizens of the Sena…
##  2     5 George W… Second Inaugural A… Monday, Ma… "Fellow Citizens:  \xa0\xa0I…
##  3     6 John Ada… Inaugural Address   Saturday, … "\xa0\xa0WHEN it was first p…
##  4     7 Thomas J… First Inaugural Ad… Wednesday,… "Friends and Fellow-Citizens…
##  5     8 Thomas J… Second Inaugural A… Monday, Ma… "\xa0\xa0PROCEEDING, fellow-…
##  6     9 James Ma… First Inaugural Ad… Saturday, … "\xa0\xa0UNWILLING to depart…
##  7    10 James Ma… Second Inaugural A… Thursday, … "\xa0\xa0ABOUT to add the so…
##  8    11 James Mo… First Inaugural Ad… Tuesday, M… "\xa0\xa0I SHOULD be destitu…
##  9    12 James Mo… Second Inaugural A… Monday, Ma… "Fellow-Citizens:  \xa0\xa0I…
## 10    13 John Qui… Inaugural Address   Friday, Ma… "\xa0\xa0IN compliance with …
## # … with 48 more rows
```
…
```r
obama_txt <- 
  obama %>% 
  unnest_tokens(word,text) %>% 
  anti_join(stop_words) %>% 
  inner_join(get_sentiments("afinn")) %>% 
  group_by(address) %>% 
  mutate(index = row_number()) %>% 
  ungroup()
obama_txt
```

```
## # A tibble: 300 x 4
##    address                 word     value index
##    <chr>                   <chr>    <dbl> <int>
##  1 First Inaugural Address grateful     3     1
##  2 First Inaugural Address trust        1     2
##  3 First Inaugural Address peace        2     3
##  4 First Inaugural Address vision       1     4
##  5 First Inaugural Address faithful     3     5
##  6 First Inaugural Address true         2     6
##  7 First Inaugural Address crisis      -3     7
##  8 First Inaugural Address war         -2     8
##  9 First Inaugural Address reaching     1     9
## 10 First Inaugural Address violence    -3    10
## # … with 290 more rows
```
…
--

Can convert easily from a document term matrix (see reading) back to a tidy text format with `tidy()`

```r
AssociatedPress %>% tidy()
```

```
## # A tibble: 302,031 x 3
##    document term       count
##       <int> <chr>      <dbl>
##  1        1 adding         1
##  2        1 adult          2
##  3        1 ago            1
##  4        1 alcohol        1
##  5        1 allegedly      1
##  6        1 allen          1
##  7        1 apparently     2
##  8        1 appeared       1
##  9        1 arrested       1
## 10        1 assault        1
## # … with 302,021 more rows
```
…
- Extract information regarding topic assignment using the `tidy()` function from the `tidytext` package
  
- Parameters of interest

  - "beta" &rarr; Term to Topic
  
  - "gamma" &rarr; Document to Topic

```r
ap_topics <- tidy(ap_lda, matrix = "beta")
ap_topics
```

```
## # A tibble: 20,946 x 3
##    topic term           beta
##    <int> <chr>         <dbl>
##  1     1 aaron      1.69e-12
##  2     2 aaron      3.90e- 5
##  3     1 abandon    2.65e- 5
##  4     2 abandon    3.99e- 5
##  5     1 abandoned  1.39e- 4
##  6     2 abandoned  5.88e- 5
##  7     1 abandoning 2.45e-33
##  8     2 abandoning 2.34e- 5
##  9     1 abbott     2.13e- 6
## 10     2 abbott     2.97e- 5
## # … with 20,936 more rows
```
…
<img src="lecture-week-08-text-as-data-ppol670_files/figure-html/unnamed-chunk-69-1.png" style="display: block; margin: auto;" />

---

### Documents to Topics

```r
ap_documents <- tidy(ap_lda, matrix = "gamma") %>% 
  arrange(document,gamma)
ap_documents 
```

```
## # A tibble: 4,492 x 3
##    document topic gamma
##       <int> <int> <dbl>
##  1        1     1 0.248
##  2        1     2 0.752
##  3        2     1 0.362
##  4        2     2 0.638
##  5        3     2 0.473
##  6        3     1 0.527
##  7        4     1 0.357
##  8        4     2 0.643
##  9        5     1 0.181
## 10        5     2 0.819
## # … with 4,482 more rows
```
…
```
## # A tibble: 2 x 3
##   document topic    gamma
##      <int> <int>    <dbl>
## 1        6     1 0.000588
## 2        6     2 0.999
```

```r
tidy(AssociatedPress) %>% filter(document == 6) %>% arrange(desc(count))
```

```
## # A tibble: 287 x 3
##    document term           count
##       <int> <chr>          <dbl>
##  1        6 noriega           16
##  2        6 panama            12
##  3        6 jackson            6
##  4        6 powell             6
##  5        6 administration     5
##  6        6 economic           5
##  7        6 general            5
##  8        6 i                  5
##  9        6 panamanian         5
## 10        6 american           4
## # … with 277 more rows
```
